^D:\SOURCE\REPOS\GDSTRUCT\SW 1 DYNAMIC\DYNAMIC\DEBUG\SOURCE.OBJ
D:\SOURCE\REPOS\GDSTRUCT\SW 1 DYNAMIC\DEBUG\DYNAMIC.EXE
D:\SOURCE\REPOS\GDSTRUCT\SW 1 DYNAMIC\DEBUG\DYNAMIC.ILK
D:\SOURCE\REPOS\GDSTRUCT\SW 1 DYNAMIC\DEBUG\DYNAMIC.PDB
